{
  "data": [
    {
      "name": "Ahmad Rizky Maulana",
      "mentor": false,
      "shift": "Morning",
      "role": "Tech",
      "photo": "Rizki_MO",
      "learn": ["-"],
      "help": [
        "Coding Basic"
      ]
    },
    {
      "name": "Albert Pangestu",
      "mentor": false,
      "shift": "Morning",
      "role": "Tech",
      "photo": "Albert_MO",
      "learn": [
        "Ideation",
        "Speak English",
        "UI and UX Design"
      ],
      "help": [
        "Programming Basics"
      ]
    },
    {
      "name": "Alifudin Aziz",
      "mentor": false,
      "shift": "Morning",
      "role": "Tech",
      "photo": "Aziz_MO",
      "learn": ["-"],
      "help": ["-"]
    },
    {
      "name": "Amelia Verina Siswanto",
      "mentor": false,
      "shift": "Morning",
      "role": "Design",
      "photo": "Amelia_MO",
      "learn": [
        "Swift",
        "UI/UX Design",
        "Public Speaking",
        "English Practice"
      ],
      "help": [
        "Design",
        "Interior & Architecture Design"
      ]
    },
    {
      "name": "Angela Priscila Montolalu",
      "mentor": false,
      "shift": "Morning",
      "role": "Design",
      "photo": "Angel_MO",
      "learn": [
        "UI/UX Design",
        "Swift",
        "English Speaking"
      ],
      "help": [
        "Graphic Design (Branding)"
      ]
    },
    {
      "name": "Ardy Stephanus",
      "mentor": false,
      "shift": "Morning",
      "role": "Tech",
      "photo": "Ardy_MO",
      "learn": ["-"],
      "help": [
        "Basic Coding",
        "Basic Swift"
      ]
    },
    {
      "name": "Arifin Stephanus",
      "mentor": false,
      "shift": "Morning",
      "role": "Tech",
      "photo": "Arifin_MO",
      "learn": ["-"],
      "help": [
        "iOS Development (UIKit)",
        "Clean Code"
      ]
    },
    {
      "name": "Arnold Pangestu",
      "mentor": false,
      "shift": "Morning",
      "role": "Tech",
      "photo": "Arnold_MO",
      "learn": ["-"],
      "help": [
        "Coding",
        "Basic UI/UX Game Design",
        "Unity"
      ]
    },
    {
      "name": "Audhy Virabri Kressa",
      "mentor": false,
      "shift": "Morning",
      "role": "Tech",
      "photo": "Audhy_MO",
      "learn": ["-"],
      "help": [
        "Basic Swift",
        "Git Version Controller",
        "Parsing Data"
      ]
    },
    {
      "name": "Baby Amelia Ardina Putri",
      "mentor": false,
      "shift": "Morning",
      "role": "Other",
      "photo": "Baby_MO",
      "learn": [
        "Swift",
        "XCode",
        "UI/UX Design"
      ],
      "help": [
        "Business insights",
        "Public speaking and presentation skill",
        "Basic Design"
      ]
    },
    {
      "name": "Bagus Setiawan",
      "mentor": false,
      "shift": "Morning",
      "role": "Tech",
      "photo": "Bagus_MO",
      "learn": ["-"],
      "help": ["-"]
    },
    {
      "name": "Benyamin Rondang Tuahta",
      "mentor": false,
      "shift": "Morning",
      "role": "Tech",
      "photo": "Ben_MO",
      "learn": [
        "Leading & trailing swipe action"
      ],
      "help": [
        "Basic coding"
      ]
    },
    {
      "name": "Dinie P Hemas",
      "mentor": false,
      "shift": "Morning",
      "role": "Tech",
      "photo": "Dinie_MO",
      "learn": [
        "Public speaking",
        "English"
      ],
      "help": [
        "Basic coding",
        "UI pattern"
      ]
    },
    {
      "name": "Dionesia Nadya Dewayani",
      "mentor": false,
      "shift": "Morning",
      "role": "Design",
      "photo": "Nadya_MO",
      "learn": ["-"],
      "help": [
        "Illustration"
      ]
    },
    {
      "name": "Edward da Costa",
      "mentor": false,
      "shift": "Morning",
      "role": "Tech",
      "photo": "Edward_MO",
      "learn": [
        "Design",
        "Advance Code"
      ],
      "help": [
        "Basic Code"
      ]
    },
    {
      "name": "Faris Rasyadi Putra",
      "mentor": false,
      "shift": "Morning",
      "role": "Tech",
      "photo": "Faris_MO",
      "learn": ["-"],
      "help": [
        "Unity 3D Programmer"
      ]
    },
    {
      "name": "Ferdinan Linardi",
      "mentor": false,
      "shift": "Morning",
      "role": "Design",
      "photo": "Ferdinan_MO",
      "learn": [
        "Swift",
        "UI/UX Design",
        "Copywriting",
        "Public Speaking",
        "English Practice"
      ],
      "help": [
        "Illustration",
        "Graphic Design",
        "Fashion Styling"
      ]
    },
    {
      "name": "Geraldine Janice Wibisono",
      "mentor": false,
      "shift": "Morning",
      "role": "Design",
      "photo": "Janice_MO",
      "learn": [
        "Intermediate coding",
        "Translating design into code"
      ],
      "help": [
        "Graphic design",
        "Illustration"
      ]
    },
    {
      "name": "Hana Christina Rondoh",
      "mentor": false,
      "shift": "Morning",
      "role": "Design",
      "photo": "Hana_MO",
      "learn": [
        "XCode",
        "Swift",
        "UI/UX Design",
        "English Practice",
        "English Public Speaking",
        "English copywriting"
      ],
      "help": [
        "Fashion deisgn",
        "Graphic design",
        "Fashion business and styling"
      ]
    },
    {
      "name": "Henry Christanto Sutjiono",
      "mentor": false,
      "shift": "Morning",
      "role": "Design",
      "photo": "Henry_MO",
      "learn": [
        "Basic Coding for XCode",
        "Designing prototype with Sketch"
      ],
      "help": [
        "Photography",
        "Copywriting",
        "Advertising"
      ]
    },
    {
      "name": "Ibrahim Yunus Muhammad Fiqhan",
      "mentor": false,
      "shift": "Morning",
      "role": "Tech",
      "photo": "Fiqhan_MO",
      "learn": [
        "English",
        "Graphic Design",
        "Custom Component in Swift"
      ],
      "help": [
        "Basic Programming",
        "Object Oriented Programming",
        "Software Design Pattern"
      ]
    },
    {
      "name": "James Tirto",
      "mentor": false,
      "shift": "Morning",
      "role": "Other",
      "photo": "James_MO",
      "learn": ["-"],
      "help": ["-"]
    },
    {
      "name": "Janice Budihartono",
      "mentor": false,
      "shift": "Morning",
      "role": "Tech",
      "photo": "J'Ice_MO",
      "learn": [
        "Auto layout",
        "Intermediate Swift Code",
        "Design"
      ],
      "help": [
        "Code",
        "English"
      ]
    },
    {
      "name": "Jeffrey Phinardi Kosasih",
      "mentor": false,
      "shift": "Morning",
      "role": "Tech",
      "photo": "Jep_MO",
      "learn": [
        "Public Speaking",
        "XCode"
      ],
      "help": [
        "Youtube Content",
        "Pr",
        "Ph",
        "Ai",
        "Basic coding"
      ]
    },
    {
      "name": "Jeffry Sandy Purnomo",
      "mentor": false,
      "shift": "Morning",
      "role": "Tech",
      "photo": "Jeffry_MO",
      "learn": [
        "Swift UI"
      ],
      "help": [
        "Basic Code",
        "Basic Sketch"
      ]
    },
    {
      "name": "Jesslyn Faustina",
      "mentor": false,
      "shift": "Morning",
      "role": "Design",
      "photo": "Jesslyn_MO",
      "learn": [
        "Intermediate coding"
      ],
      "help": [
        "Graphic Design"
      ]
    },
    {
      "name": "Josephine Sugiharto",
      "mentor": false,
      "shift": "Morning",
      "role": "Design",
      "photo": "Jose_MO",
      "learn": [
        "Basic Coding"
      ],
      "help": [
        "Branding",
        "Graphic Design"
      ]
    },
    {
      "name": "Karina Enny Agustina",
      "mentor": false,
      "shift": "Morning",
      "role": "Other",
      "photo": "Karina_MO",
      "learn": ["-"],
      "help": ["-"]
    },
    {
      "name": "Leonora Jeanifer",
      "mentor": false,
      "shift": "Morning",
      "role": "Other",
      "photo": "Jean_MO",
      "learn": ["-"],
      "help": ["-"]
    },
    {
      "name": "Lois Pangestu",
      "mentor": false,
      "shift": "Morning",
      "role": "Tech",
      "photo": "Lois_MO",
      "learn": ["-"],
      "help": [
        "Basic Coding",
        "Basic Swift",
        "Idea"
      ]
    },
    {
      "name": "M. Rizky Hidayat",
      "mentor": false,
      "shift": "Morning",
      "role": "Tech",
      "photo": "Rizky_MO",
      "learn": [
        "English speak",
        "Swift code style",
        "Self management"
      ],
      "help": [
        "Basic Code",
        "SysAdmin"
      ]
    },
    {
      "name": "Martin Ivo Hardinoto",
      "mentor": false,
      "shift": "Morning",
      "role": "Tech",
      "photo": "Martin_MO",
      "learn": ["-"],
      "help": [
        "Basic Swift",
        "Ask everything about Covid-19"
      ]
    },
    {
      "name": "Michael Randicha Gunawan Santoso",
      "mentor": false,
      "shift": "Morning",
      "role": "Tech",
      "photo": "Michael_MO",
      "learn": [
        "TableViewController",
        "TableViewCell",
        "InputAccessoryView",
        "TableViewCell's item's constraint",
        "Protocol"
      ],
      "help": [
        "Basic Swift",
        "Intermediate Javascript",
        "Intermediate Laravel",
        "Interested in Flutter"
      ]
    },
    {
      "name": "Moh. Zinnur Atthufail Addausi",
      "mentor": false,
      "shift": "Morning",
      "role": "Tech",
      "photo": "A'li_MO",
      "learn": ["-"],
      "help": ["-"]
    },
    {
      "name": "Najibullah Ulul Albab",
      "mentor": false,
      "shift": "Morning",
      "role": "Tech",
      "photo": "Ulul_MO",
      "learn": [
        "Swift Intermediate",
        "UX Designer"
      ],
      "help": [
        "Code",
        "UI/UX Pattern"
      ]
    },
    {
      "name": "Natanael Geraldo Santoso",
      "mentor": false,
      "shift": "Morning",
      "role": "Tech",
      "photo": "Natanael_MO",
      "learn": ["-"],
      "help": ["-"]
    },
    {
      "name": "Nicholas Ang",
      "mentor": false,
      "shift": "Morning",
      "role": "Tech",
      "photo": "Nicholas_MO",
      "learn": ["-"],
      "help": [
        "Videography",
        "Photography",
        "Game Development",
        "Animation and VFX",
        "Basic Code"
      ]
    },
    {
      "name": "Nur Afni Zuhrotul Laili",
      "mentor": false,
      "shift": "Morning",
      "role": "Tech",
      "photo": "Afni_MO",
      "learn": ["-"],
      "help": [
        "Basic Swift",
        "Passing data",
        "Set Onboarding Screen"
      ]
    },
    {
      "name": "Oktavia Citra Resmi Rachmawati",
      "mentor": false,
      "shift": "Morning",
      "role": "Tech",
      "photo": "Citra_MO",
      "learn": ["-"],
      "help": ["-"]
    },
    {
      "name": "Rachel Audrey Effendi",
      "mentor": false,
      "shift": "Morning",
      "role": "Design",
      "photo": "Rachel_MO",
      "learn": [
        "Basic coding"
      ],
      "help": [
        "Graphic Design",
        "Branding"
      ]
    },
    {
      "name": "Rizal Hidayat",
      "mentor": false,
      "shift": "Morning",
      "role": "Tech",
      "photo": "Rizal_MO",
      "learn": [
        "English"
      ],
      "help": [
        "Basic code",
        "Basic swift"
      ]
    },
    {
      "name": "Siti Istiany Tribunda",
      "mentor": false,
      "shift": "Morning",
      "role": "Design",
      "photo": "Isti_MO",
      "learn": [
        "English speaking",
        "Public speaking",
        "Teamwork",
        "Coding",
        "Swift",
        "UI/UX Design"
      ],
      "help": [
        "Graphic Design",
        "Branding",
        "Layout",
        "Social Media"
      ]
    },
    {
      "name": "Steven Wijaya",
      "mentor": false,
      "shift": "Morning",
      "role": "Tech",
      "photo": "SW_MO",
      "learn": ["-"],
      "help": [
        "Basic Code",
        "Basic Swift",
        "iOS Dev",
        "MacOS dev",
        "Laravel",
        "Backend"
      ]
    },
    {
      "name": "Taufiq Ramadhany",
      "mentor": false,
      "shift": "Morning",
      "role": "Tech",
      "photo": "Taufiq_MO",
      "learn": ["-"],
      "help": [
        "Basic swift"
      ]
    },
    {
      "name": "Tony Varian Yoditanto",
      "mentor": false,
      "shift": "Morning",
      "role": "Tech",
      "photo": "Tony_MO",
      "learn": ["-"],
      "help": ["-"]
    },
    {
      "name": "Wahyu Kharisma Mujiono",
      "mentor": false,
      "shift": "Morning",
      "role": "Tech",
      "photo": "Wahyujus_MO",
      "learn": ["-"],
      "help": ["-"]
    },
    {
      "name": "Wahyu Saputra",
      "mentor": false,
      "shift": "Morning",
      "role": "Tech",
      "photo": "Wahyu_MO",
      "learn": [
        "Photoeditor",
        "English Speaking"
      ],
      "help": [
        "Basic Coding"
      ]
    },
    {
      "name": "Winata Arafat Fal Aham",
      "mentor": false,
      "shift": "Morning",
      "role": "Tech",
      "photo": "Badai_MO",
      "learn": [
        "UI/UX Design",
        "Swift",
        "English speaking"
      ],
      "help": [
        "Photography",
        "Basic Coding",
        "Critical Thinking",
        "git"
      ]
    },
    {
      "name": "Yonatan Niko Sucahyo",
      "mentor": false,
      "shift": "Morning",
      "role": "Other",
      "photo": "Niko_MO",
      "learn": [
        "Basic Coding",
        "Graphic Design"
      ],
      "help": [
        "Business Management"
      ]
    }
  ]
}
