{
  "data": [
    {
      "name": "Ari Kurniawan",
      "mentor": true,
      "shift": "All",
      "role": "Design Facilitator",
      "photo": "Ari_SE",
      "learn": [
        "Basic Coding"
      ],
      "help": [
        "Graphic Design",
        "HIG",
        "UI/UX"
      ]
    },
    {
      "name": "Bayu Prasetya",
      "mentor": true,
      "shift": "All",
      "role": "Design Facilitator",
      "photo": "Bayu_SE",
      "learn": ["-"],
      "help": [
        "Visual Branding",
        "Design Thinking",
        "Development Process",
        "UI/UX"
      ]
    },
    {
      "name": "Dickson Leonard",
      "mentor": true,
      "shift": "All",
      "role": "Academy Manager",
      "photo": "Dickson_SE",
      "learn": ["-"],
      "help": [
        "Coding basics",
        "App development process",
        "Basic UX",
        "Professional Skills"
      ]
    },
    {
      "name": "Fanny Halim",
      "mentor": true,
      "shift": "All",
      "role": "Coding Facilitator",
      "photo": "Fanny_SE",
      "learn": [
        "English Speaking"
      ],
      "help": [
        "Basic iOS Development",
        "Discussion"
      ]
    },
    {
      "name": "Gabriele Wijasa",
      "mentor": true,
      "shift": "All",
      "role": "Design Facilitator",
      "photo": "Gabriele_SE",
      "learn": ["-"],
      "help": [
        "Graphic Design",
        "UI/UX",
        "Photography"
      ]
    },
    {
      "name": "Januar Tanzil",
      "mentor": true,
      "shift": "All",
      "role": "Coding Facilitator",
      "photo": "Januar_SE",
      "learn": ["-"],
      "help": [
        "Swift",
        "iOS Development",
        "Game Development",
        "Software Engineering"
      ]
    },
    {
      "name": "Jaya Pranata",
      "mentor": true,
      "shift": "All",
      "role": "Coding Facilitator",
      "photo": "Jaya_SE",
      "learn": [
        "Graphic Design",
        "UI/UX",
        "Problem Analysis",
        "Basic research",
        "HIG"
      ],
      "help": [
        "Coding Basic",
        "Swift",
        "Auto Layout",
        "Core Data",
        "Map"
      ]
    },
    {
      "name": "John Alan Ketaren",
      "mentor": true,
      "shift": "All",
      "role": "Professional Facilitator",
      "photo": "Ketaren_SE",
      "learn": [
        "Basic XCode"
      ],
      "help": [
        "Ideation",
        "Bringing resources",
        "User testing",
        "Business",
        "Fintech",
        "Presentation",
        "Networking"
      ]
    },
    {
      "name": "Rachmat Kukuh Rahadiansyah",
      "mentor": true,
      "shift": "All",
      "role": "Coding Facilitator",
      "photo": "Kukuh_SE",
      "learn": ["-"],
      "help": [
        "General iOS App Development",
        "iOS Framework",
        "Swift"
      ]
    },
    {
      "name": "Yehezkiel Cheryan Tjandra",
      "mentor": true,
      "shift": "All",
      "role": "Professional Facilitator",
      "photo": "Ryan_SE",
      "learn": [
        "Swift",
        "XCode"
      ],
      "help": [
        "English language",
        "Public speaking",
        "Business presentation",
        "Business writing",
        "Business insights"
      ]
    },
    {
      "name": "Yulibar Husni",
      "mentor": true,
      "shift": "All",
      "role": "Coding Facilitator",
      "photo": "Yulibar_SE",
      "learn": [
        "Ideation",
        "English Speaking",
        "Project Management"
      ],
      "help": [
        "Swift",
        "Ideation",
        "Animation Production"
      ]
    }
  ]
}
